%YAML 1.1
%TAG !u! tag:unity3d.com,2011:
--- !u!114 &11400000
MonoBehaviour:
  m_ObjectHideFlags: 0
  m_CorrespondingSourceObject: {fileID: 0}
  m_PrefabInstance: {fileID: 0}
  m_PrefabAsset: {fileID: 0}
  m_GameObject: {fileID: 0}
  m_Enabled: 1
  m_EditorHideFlags: 0
  m_Script: {fileID: -1893448595, guid: a040fb66244a7f54289914d98ea4ef7d, type: 3}
  m_Name: CompareMotivator
  m_EditorClassIdentifier: 
  _data:
    _json: '{"graph":{"variables":{"collection":{"$content":[],"$version":"A"},"$version":"A"},"controlInputDefinitions":[{"key":"Enter","label":null,"summary":null,"hideLabel":false}],"controlOutputDefinitions":[{"key":"Exit","label":null,"summary":null,"hideLabel":true}],"valueInputDefinitions":[{"hasDefaultValue":false,"defaultValue":null,"_type":"IW.AI.Motivation.Motivator","key":"A","label":"Motivator
      A","summary":null,"hideLabel":false},{"hasDefaultValue":false,"defaultValue":null,"_type":"IW.AI.Motivation.Motivator","key":"B","label":"Motivator
      B","summary":null,"hideLabel":false}],"valueOutputDefinitions":[{"_type":"System.Boolean","key":"chooseA","label":"A
      is greater","summary":null,"hideLabel":false}],"title":null,"summary":null,"pan":{"x":8.172203,"y":19.82201},"zoom":1.0,"elements":[{"defaultValues":{},"position":{"x":205.0,"y":-113.0},"guid":"ad7a1491-7019-4426-82c7-f4c727899bfe","$version":"A","$type":"Bolt.GraphOutput","$id":"14"},{"chainable":false,"member":{"name":"GetUrgency","parameterTypes":[],"targetType":"IW.AI.Motivation.Motivator","targetTypeName":"IW.AI.Motivation.Motivator","$version":"A"},"defaultValues":{"target":null},"position":{"x":-398.0,"y":-114.0},"guid":"eca2c166-a456-474e-8a6b-7ce86051e490","$version":"A","$type":"Bolt.InvokeMember","$id":"16"},{"numeric":true,"defaultValues":{"b":{"$content":0.0,"$type":"System.Single"}},"position":{"x":-152.0,"y":-159.0},"guid":"7957eff7-8187-40e2-9319-17ac6b085993","$version":"A","$type":"Bolt.Greater","$id":"19"},{"numeric":true,"defaultValues":{"b":{"$content":0.0,"$type":"System.Single"}},"position":{"x":-159.0,"y":53.0},"guid":"e6b0b847-fce9-49b7-8b4e-e2cca133a37c","$version":"A","$type":"Bolt.LessOrEqual","$id":"21"},{"chainable":false,"member":{"name":"GetUrgency","parameterTypes":[],"targetType":"IW.AI.Motivation.Motivator","targetTypeName":"IW.AI.Motivation.Motivator","$version":"A"},"defaultValues":{"target":null},"position":{"x":-397.0,"y":-230.0},"guid":"3d9354db-bbb2-4b93-a7fb-618497e2dac0","$version":"A","$type":"Bolt.InvokeMember","$id":"23"},{"defaultValues":{},"position":{"x":-624.0,"y":-185.0},"guid":"914e8516-47b1-4c01-ba9f-9ec8282b5636","$version":"A","$type":"Bolt.GraphInput","$id":"26"},{"member":{"name":"PriorityInt","parameterTypes":null,"targetType":"IW.AI.Motivation.Motivator","targetTypeName":"IW.AI.Motivation.Motivator","$version":"A"},"defaultValues":{"target":null},"position":{"x":-408.0,"y":12.0},"guid":"eb4bb171-b69b-4e49-b860-792c6ed182cf","$version":"A","$type":"Bolt.GetMember","$id":"28"},{"member":{"name":"PriorityInt","parameterTypes":null,"targetType":"IW.AI.Motivation.Motivator","targetTypeName":"IW.AI.Motivation.Motivator","$version":"A"},"defaultValues":{"target":null},"position":{"x":-409.0,"y":107.0},"guid":"c37084a2-d537-4db7-b0fa-40df35bf2110","$version":"A","$type":"Bolt.GetMember","$id":"31"},{"defaultValues":{},"position":{"x":9.0,"y":-30.0},"guid":"217a37f2-9b47-4fbe-9ab1-08ce93660821","$version":"A","$type":"Bolt.And","$id":"34"},{"sourceUnit":{"$ref":"26"},"sourceKey":"Enter","destinationUnit":{"$ref":"23"},"destinationKey":"enter","guid":"00ccee63-8a56-4bca-befd-ff82cf6c9417","$type":"Bolt.ControlConnection"},{"sourceUnit":{"$ref":"23"},"sourceKey":"exit","destinationUnit":{"$ref":"16"},"destinationKey":"enter","guid":"c07f4b52-a4cb-4a9f-8866-ebc83a14232b","$type":"Bolt.ControlConnection"},{"sourceUnit":{"$ref":"16"},"sourceKey":"exit","destinationUnit":{"$ref":"14"},"destinationKey":"Exit","guid":"b6f3f1a7-9771-4ea4-bde8-1c38db8a59c2","$type":"Bolt.ControlConnection"},{"sourceUnit":{"$ref":"23"},"sourceKey":"result","destinationUnit":{"$ref":"19"},"destinationKey":"a","guid":"659b1cc9-90a8-44df-a949-90e51292ebaf","$type":"Bolt.ValueConnection"},{"sourceUnit":{"$ref":"26"},"sourceKey":"A","destinationUnit":{"$ref":"23"},"destinationKey":"target","guid":"42090c63-e319-4d23-8b2b-dd10637bd2ad","$type":"Bolt.ValueConnection"},{"sourceUnit":{"$ref":"26"},"sourceKey":"B","destinationUnit":{"$ref":"16"},"destinationKey":"target","guid":"273ffc2c-d84c-4fee-b081-48ae38653110","$type":"Bolt.ValueConnection"},{"sourceUnit":{"$ref":"16"},"sourceKey":"result","destinationUnit":{"$ref":"19"},"destinationKey":"b","guid":"f205604c-a295-41a4-bde3-30fcc42d1541","$type":"Bolt.ValueConnection"},{"sourceUnit":{"$ref":"26"},"sourceKey":"A","destinationUnit":{"$ref":"28"},"destinationKey":"target","guid":"35521e7b-e21f-4444-b433-7a6896bc16b8","$type":"Bolt.ValueConnection"},{"sourceUnit":{"$ref":"26"},"sourceKey":"B","destinationUnit":{"$ref":"31"},"destinationKey":"target","guid":"64d92db1-7d09-40bc-b66c-57b633f41ec5","$type":"Bolt.ValueConnection"},{"sourceUnit":{"$ref":"28"},"sourceKey":"value","destinationUnit":{"$ref":"21"},"destinationKey":"a","guid":"05043048-b54d-4b84-8c1b-d6c9717899ab","$type":"Bolt.ValueConnection"},{"sourceUnit":{"$ref":"31"},"sourceKey":"value","destinationUnit":{"$ref":"21"},"destinationKey":"b","guid":"165ec980-c9c8-4747-b09c-0c78d24efcea","$type":"Bolt.ValueConnection"},{"sourceUnit":{"$ref":"19"},"sourceKey":"comparison","destinationUnit":{"$ref":"34"},"destinationKey":"a","guid":"fe757fb3-d687-45e3-9a4a-fe8a2026baa4","$type":"Bolt.ValueConnection"},{"sourceUnit":{"$ref":"21"},"sourceKey":"comparison","destinationUnit":{"$ref":"34"},"destinationKey":"b","guid":"cb7d0fd7-8402-4daa-8be9-3f5dd3170181","$type":"Bolt.ValueConnection"},{"sourceUnit":{"$ref":"34"},"sourceKey":"result","destinationUnit":{"$ref":"14"},"destinationKey":"chooseA","guid":"c0e57f77-a53d-4652-bb7e-f9b623edfc0b","$type":"Bolt.ValueConnection"}],"$version":"A"}}'
    _objectReferences: []
